﻿DEC,HEX,Theo,Sim,Post-Lay,Corners
0,0x00,0,9.85,,
1,0x01,15,21.86,,
2,0x02,30,31.73,,
3,0x03,45,44.05,,
4,0x04,60,52.20,,
5,0x05,75,63.91,,
6,0x06,90,73.63,,
7,0x07,105,85.58,,
8,0x08,120,93.41,,
9,0x09,135,105.32,,
10,0xA,150,115.30,,
11,0xB,165,127.27,,
12,0xC,180,135.56,,
13,0xD,195,147.06,,
14,0xE,210,156.58,,
15,0xF,225,169.06,,
